{
    "author": [
        "Evertiro (Evertiro#9261)"
    ],
    "short": "Integrate WordPress sites with Discord.",
    "description": "Integrates with any site running WordPress and allows users to display information from the site based on a variety of criteria.",
    "tags": [
        "faq",
        "help"
    ],
    "requirements" : [
        "beautifulsoup4"
    ],
    "install_msg": "Thanks for installing!",
    "min_bot_version": "3.1.8",
    "disabled": false,
    "hidden": false
}
